TidyMultiqc • TidyMultiqc
…
We now have the plot data, but it’s not in a very usable form! This is because each sample has an entire data frame of plot data. At this point if you’re comfortable using dplyr and tidyr to deal with nested data frames, you probably know what to do. Otherwise, read on.

Converting Plot Data

Recall that we are after the median quality score of each sample. First, we should look at the plot data for a single sample to know what we’re dealing with:

df$plot.fastqc_per_sequence_quality_scores_plot[[1]]
#> # A tibble: 35 × 2
#>        x      y
#>    <dbl>  <dbl>
#>  1     7      2
#>  2     8     13
#>  3     9    121
#>  4    10    702
#>  5    11   3962
#>  6    12  11946
#>  7    13  33566
#>  8    14  77653
#>  9    15 157422
#> 10    16 294209
#> # … with 25 more rows

So each data frame is a set of x, y pairs. As it’s a histogram plot, we know that the x value is the quality score, and y is the number of times that score has been counted.

Unnesting

One possible way to process this nested data is to use tidyr:

df %>%
  tidyr::unnest(cols = plot.fastqc_per_sequence_quality_scores_plot)
#> # A tibble: 216 × 3
#>    metadata.sample_id     x      y
#>    <chr>              <dbl>  <dbl>
#>  1 P4107_1001             7      2
#>  2 P4107_1001             8     13
#>  3 P4107_1001             9    121
#>  4 P4107_1001            10    702
#>  5 P4107_1001            11   3962
#>  6 P4107_1001            12  11946
#>  7 P4107_1001            13  33566
#>  8 P4107_1001            14  77653
#>  9 P4107_1001            15 157422
#> 10 P4107_1001            16 294209
#> # … with 206 more rows
…
